{
  "schema": {
    "autocomplete": {
      "type": "string",
      "title": "Basic Autocomplete",
      "name": "myautocmp",
      "items": {
        "type": "string",
        "enum": [
          {
            "name": "chips1",
            "id": "1"
          },
          {
            "name": "chips2",
            "id": "2"
          },
          {
            "name": "chips3",
            "id": "3"
          }
        ]
      }
    }
  },
  "form": [
    {
      "key": "autocomplete",
      "type": "autocomplete"
    }
  ]
}
